{
  "panels": [
    {
      "aliasColors": {},
      "bars": false,
      "dashLength": 10,
      "dashes": false,
      "datasource": "InfluxDB-Applications",
      "fill": 1,
      "gridPos": {
        "h": 9,
        "w": 10,
        "x": 10,
        "y": 24
      },
      "hideTimeOverride": false,
      "id": 5,
      "interval": "",
      "legend": {
        "avg": false,
        "current": false,
        "max": false,
        "min": false,
        "show": true,
        "total": false,
        "values": false
      },
      "lines": true,
      "linewidth": 1,
      "links": [],
      "nullPointMode": "null",
      "paceLength": 10,
      "percentage": false,
      "pointradius": 2,
      "points": true,
      "renderer": "flot",
      "seriesOverrides": [
        {
          "alias": "route_audit.route {route: }",
          "dashes": true
        }
      ],
      "stack": false,
      "steppedLine": false,
      "targets": [
        {
          "groupBy": [],
          "hide": false,
          "measurement": "route_audit",
          "orderByTime": "ASC",
          "policy": "RedRouterRetention",
          "query": "SELECT \"elapsed\" FROM \"RedRouterRetention\".\"route_audit\" WHERE $timeFilter and (route = 'pdfPittUploadRouteId'  or route = 'pdfPittInboundFromFujiRouteId' or route = 'pdfPittRestServiceInboundRouteId') group by route",
          "rawQuery": true,
          "refId": "A",
          "resultFormat": "time_series",
          "select": [
            [
              {
                "params": [
                  "route"
                ],
                "type": "field"
              }
            ],
            [
              {
                "params": [
                  "elapsed"
                ],
                "type": "field"
              }
            ]
          ],
          "tags": []
        }
      ],
      "thresholds": [
        {
          "colorMode": "critical",
          "fill": true,
          "line": true,
          "op": "gt",
          "value": 10000,
          "yaxis": "left"
        }
      ],
      "timeFrom": null,
      "timeRegions": [],
      "timeShift": null,
      "title": "RedRouter - Route PdfPitt elapsed",
      "tooltip": {
        "shared": true,
        "sort": 1,
        "value_type": "individual"
      },
      "type": "graph",
      "xaxis": {
        "buckets": null,
        "mode": "time",
        "name": null,
        "show": true,
        "values": []
      },
      "yaxes": [
        {
          "format": "ms",
          "label": null,
          "logBase": 1,
          "max": null,
          "min": null,
          "show": true
        },
        {
          "format": "short",
          "label": null,
          "logBase": 1,
          "max": null,
          "min": null,
          "show": true
        }
      ],
      "yaxis": {
        "align": false,
        "alignLevel": null
      }
    },
    {
      "aliasColors": {},
      "bars": false,
      "dashLength": 10,
      "dashes": false,
      "datasource": "InfluxDB-Applications",
      "fill": 1,
      "gridPos": {
        "h": 9,
        "w": 10,
        "x": 10,
        "y": 33
      },
      "hideTimeOverride": false,
      "id": 19,
      "interval": "",
      "legend": {
        "avg": false,
        "current": false,
        "max": false,
        "min": false,
        "show": true,
        "total": false,
        "values": false
      },
      "lines": true,
      "linewidth": 1,
      "links": [],
      "nullPointMode": "null",
      "paceLength": 10,
      "percentage": false,
      "pointradius": 2,
      "points": true,
      "renderer": "flot",
      "seriesOverrides": [
        {
          "alias": "route_audit.route {route: }",
          "dashes": true
        }
      ],
      "stack": false,
      "steppedLine": false,
      "targets": [
        {
          "groupBy": [],
          "hide": false,
          "measurement": "route_audit",
          "orderByTime": "ASC",
          "policy": "RedRouterRetention",
          "query": "SELECT  exchange_size/1024 FROM \"RedRouterRetention\".\"route_audit\" WHERE $timeFilter and (route = 'pdfPittUploadRouteId'  or route = 'pdfPittInboundFromFujiRouteId' or route = 'pdfPittRestServiceInboundRouteId') group by route",
          "rawQuery": true,
          "refId": "A",
          "resultFormat": "time_series",
          "select": [
            [
              {
                "params": [
                  "route"
                ],
                "type": "field"
              }
            ],
            [
              {
                "params": [
                  "elapsed"
                ],
                "type": "field"
              }
            ]
          ],
          "tags": []
        }
      ],
      "thresholds": [
        {
          "colorMode": "critical",
          "fill": true,
          "line": true,
          "op": "gt",
          "value": 10000,
          "yaxis": "left"
        }
      ],
      "timeFrom": null,
      "timeRegions": [],
      "timeShift": null,
      "title": "RedRouter - Route PdfPitt size (Kb)",
      "tooltip": {
        "shared": true,
        "sort": 1,
        "value_type": "individual"
      },
      "type": "graph",
      "xaxis": {
        "buckets": null,
        "mode": "time",
        "name": null,
        "show": true,
        "values": []
      },
      "yaxes": [
        {
          "format": "deckbytes",
          "label": null,
          "logBase": 1,
          "max": null,
          "min": null,
          "show": true
        },
        {
          "format": "short",
          "label": null,
          "logBase": 1,
          "max": null,
          "min": null,
          "show": true
        }
      ],
      "yaxis": {
        "align": false,
        "alignLevel": null
      }
    },
    {
      "aliasColors": {},
      "bars": false,
      "dashLength": 10,
      "dashes": false,
      "datasource": "InfluxDB-Applications",
      "fill": 1,
      "gridPos": {
        "h": 9,
        "w": 10,
        "x": 10,
        "y": 42
      },
      "hideTimeOverride": false,
      "id": 7,
      "interval": "",
      "legend": {
        "avg": true,
        "current": false,
        "max": true,
        "min": true,
        "show": true,
        "total": false,
        "values": true
      },
      "lines": true,
      "linewidth": 1,
      "links": [],
      "nullPointMode": "null",
      "paceLength": 10,
      "percentage": false,
      "pointradius": 2,
      "points": true,
      "renderer": "flot",
      "seriesOverrides": [
        {
          "alias": "route_audit.route {route: }",
          "dashes": true
        }
      ],
      "stack": false,
      "steppedLine": false,
      "targets": [
        {
          "groupBy": [],
          "hide": false,
          "measurement": "route_audit",
          "orderByTime": "ASC",
          "policy": "RedRouterRetention",
          "query": "SELECT \"elapsed\" FROM \"RedRouterRetention\".\"route_audit\" WHERE $timeFilter and ( route = 'nemInboundNotificationRouteId' or route = 'nemOutboundNotificationRouteId')  group by route",
          "rawQuery": true,
          "refId": "A",
          "resultFormat": "time_series",
          "select": [
            [
              {
                "params": [
                  "route"
                ],
                "type": "field"
              }
            ],
            [
              {
                "params": [
                  "elapsed"
                ],
                "type": "field"
              }
            ]
          ],
          "tags": []
        }
      ],
      "thresholds": [
        {
          "colorMode": "critical",
          "fill": true,
          "line": true,
          "op": "gt",
          "value": 10000,
          "yaxis": "left"
        }
      ],
      "timeFrom": null,
      "timeRegions": [],
      "timeShift": null,
      "title": "RedRouter - Route Nem elapsed",
      "tooltip": {
        "shared": true,
        "sort": 1,
        "value_type": "individual"
      },
      "type": "graph",
      "xaxis": {
        "buckets": null,
        "mode": "time",
        "name": null,
        "show": true,
        "values": []
      },
      "yaxes": [
        {
          "format": "ms",
          "label": null,
          "logBase": 1,
          "max": null,
          "min": null,
          "show": true
        },
        {
          "format": "short",
          "label": null,
          "logBase": 1,
          "max": null,
          "min": null,
          "show": true
        }
      ],
      "yaxis": {
        "align": false,
        "alignLevel": null
      }
    },
    {
      "aliasColors": {},
      "bars": false,
      "dashLength": 10,
      "dashes": false,
      "datasource": "InfluxDB-Applications",
      "fill": 1,
      "gridPos": {
        "h": 9,
        "w": 10,
        "x": 0,
        "y": 52
      },
      "hideTimeOverride": false,
      "id": 9,
      "interval": "",
      "legend": {
        "avg": false,
        "current": false,
        "max": false,
        "min": false,
        "show": true,
        "total": false,
        "values": false
      },
      "lines": true,
      "linewidth": 1,
      "links": [],
      "nullPointMode": "null",
      "paceLength": 10,
      "percentage": false,
      "pointradius": 2,
      "points": true,
      "renderer": "flot",
      "seriesOverrides": [
        {
          "alias": "route_audit.route {route: }",
          "dashes": true
        }
      ],
      "stack": false,
      "steppedLine": false,
      "targets": [
        {
          "groupBy": [],
          "hide": false,
          "measurement": "route_audit",
          "orderByTime": "ASC",
          "policy": "RedRouterRetention",
          "query": "SELECT \"elapsed\" FROM \"RedRouterRetention\".\"route_audit\" WHERE $timeFilter and ( route = 'vicGasMarketInboundRouteId' or route = 'vicGasMarketOutboundRouteId')  group by route",
          "rawQuery": true,
          "refId": "A",
          "resultFormat": "time_series",
          "select": [
            [
              {
                "params": [
                  "route"
                ],
                "type": "field"
              }
            ],
            [
              {
                "params": [
                  "elapsed"
                ],
                "type": "field"
              }
            ]
          ],
          "tags": []
        }
      ],
      "thresholds": [
        {
          "colorMode": "critical",
          "fill": true,
          "line": true,
          "op": "gt",
          "value": 10000,
          "yaxis": "left"
        }
      ],
      "timeFrom": null,
      "timeRegions": [],
      "timeShift": null,
      "title": "RedRouter - Route VicGas elapsed",
      "tooltip": {
        "shared": true,
        "sort": 1,
        "value_type": "individual"
      },
      "type": "graph",
      "xaxis": {
        "buckets": null,
        "mode": "time",
        "name": null,
        "show": true,
        "values": []
      },
      "yaxes": [
        {
          "format": "ms",
          "label": null,
          "logBase": 1,
          "max": null,
          "min": null,
          "show": true
        },
        {
          "format": "short",
          "label": null,
          "logBase": 1,
          "max": null,
          "min": null,
          "show": true
        }
      ],
      "yaxis": {
        "align": false,
        "alignLevel": null
      }
    },


    {
      "aliasColors": {},
      "bars": false,
      "dashLength": 10,
      "dashes": false,
      "datasource": "InfluxDB-Applications",
      "fill": 1,
      "gridPos": {
        "h": 9,
        "w": 10,
        "x": 10,
        "y": 61
      },
      "hideTimeOverride": false,
      "id": 6,
      "interval": "",
      "legend": {
        "avg": false,
        "current": false,
        "max": false,
        "min": false,
        "show": true,
        "total": false,
        "values": false
      },
      "lines": true,
      "linewidth": 1,
      "links": [],
      "nullPointMode": "null",
      "paceLength": 10,
      "percentage": false,
      "pointradius": 2,
      "points": true,
      "renderer": "flot",
      "seriesOverrides": [
        {
          "alias": "route_audit.route {route: }",
          "dashes": true
        }
      ],
      "stack": true,
      "steppedLine": false,
      "targets": [
        {
          "groupBy": [],
          "hide": false,
          "measurement": "route_audit",
          "orderByTime": "ASC",
          "policy": "RedRouterRetention",
          "query": "SELECT \"elapsed\" FROM \"RedRouterRetention\".\"route_audit\" WHERE $timeFilter and route = 'nem13WayneOutboundRouteId'  group by route",
          "rawQuery": true,
          "refId": "A",
          "resultFormat": "time_series",
          "select": [
            [
              {
                "params": [
                  "route"
                ],
                "type": "field"
              }
            ],
            [
              {
                "params": [
                  "elapsed"
                ],
                "type": "field"
              }
            ]
          ],
          "tags": []
        }
      ],
      "thresholds": [
        {
          "colorMode": "critical",
          "fill": true,
          "line": true,
          "op": "gt",
          "value": 10000,
          "yaxis": "left"
        }
      ],
      "timeFrom": null,
      "timeRegions": [],
      "timeShift": null,
      "title": "RedRouter - Route Nem13 Wayne elapsed",
      "tooltip": {
        "shared": true,
        "sort": 1,
        "value_type": "individual"
      },
      "type": "graph",
      "xaxis": {
        "buckets": null,
        "mode": "time",
        "name": null,
        "show": true,
        "values": []
      },
      "yaxes": [
        {
          "format": "ms",
          "label": null,
          "logBase": 1,
          "max": null,
          "min": null,
          "show": true
        },
        {
          "format": "short",
          "label": null,
          "logBase": 1,
          "max": null,
          "min": null,
          "show": true
        }
      ],
      "yaxis": {
        "align": false,
        "alignLevel": null
      }
    }
  ]
}
